{
  "project_info": {
    "project_number": "485882701457",
    "firebase_url": "https://arhamcorporation-c2d96.firebaseio.com",
    "project_id": "arhamcorporation-c2d96",
    "storage_bucket": "arhamcorporation-c2d96.appspot.com"
  },
  "client": [
    {
      "client_info": {
        "mobilesdk_app_id": "1:485882701457:android:38c6a853de1823c9",
        "android_client_info": {
          "package_name": "arham.co.arhamcorporation"
        }
      },
      "oauth_client": [
        {
          "client_id": "485882701457-4kvggl7j6jmtb43f89ajdtbu0jri7lja.apps.googleusercontent.com",
          "client_type": 1,
          "android_info": {
            "package_name": "arham.co.arhamcorporation",
            "certificate_hash": "2b2220ef091c91258d93ea8f4821254d374a6bc1"
          }
        },
        {
          "client_id": "485882701457-tpj59sits1bv5snft1e8njno375iuj4m.apps.googleusercontent.com",
          "client_type": 3
        }
      ],
      "api_key": [
        {
          "current_key": "AIzaSyD30qlHb0Ugsh1HMWNgHloa6ne02d22how"
        }
      ],
      "services": {
        "analytics_service": {
          "status": 1
        },
        "appinvite_service": {
          "status": 2,
          "other_platform_oauth_client": [
            {
              "client_id": "485882701457-tpj59sits1bv5snft1e8njno375iuj4m.apps.googleusercontent.com",
              "client_type": 3
            }
          ]
        },
        "ads_service": {
          "status": 2
        }
      }
    }
  ],
  "configuration_version": "1"
}